{
  "success": true,
  "message": "Expense list loaded successfully",
  "status_code": 200,
  "code": "EXPENSE_LIST_LOADED",
  "data": {
    "summary": {
      "total_expense": 25760
    },
    "pagination": {
      "current_page": 1,
      "per_page": 10,
      "total": 12,
      "last_page": 2
    },
    "expenses": [
      {
        "id": 1,
        "title": "Grocery Shopping",
        "amount": 4200,
        "category": "Grocery",
        "paid_by": "Mother",
        "payment_account": "Cash",
        "date": "2026-06-03",
        "receipt_image": null,
        "notes": "Monthly grocery"
      },
      {
        "id": 2,
        "title": "Electricity Bill",
        "amount": 1850,
        "category": "Utility",
        "paid_by": "Father",
        "payment_account": "bKash",
        "date": "2026-06-05",
        "receipt_image": null,
        "notes": null
      },
      {
        "id": 3,
        "title": "Medicine Purchase",
        "amount": 950,
        "category": "Health",
        "paid_by": "Mother",
        "payment_account": "Nagad",
        "date": "2026-06-11",
        "receipt_image": null,
        "notes": null
      },
      {
        "id": 4,
        "title": "Internet Bill",
        "amount": 1200,
        "category": "Utility",
        "paid_by": "Brother",
        "payment_account": "bKash",
        "date": "2026-06-12",
        "receipt_image": null,
        "notes": null
      },
      {
        "id": 5,
        "title": "Vegetable Market",
        "amount": 780,
        "category": "Grocery",
        "paid_by": "Mother",
        "payment_account": "Cash",
        "date": "2026-06-14",
        "receipt_image": null,
        "notes": null
      }
    ]
  }
}